Practical: Natural Language Processing
…
# load
library(tidytext)

Warning: package 'tidytext' was built under R version 3.4.4

# tokenize
got_words <- got %>%
  unnest_tokens(word, text) 

# print
got

# A tibble: 63,263 x 4
   season episode title            text                              
    <dbl>   <dbl> <chr>            <chr>                             
 1     1.      1. Winter Is Coming Easy, boy.                        
 2     1.      1. Winter Is Coming <i>( Gasps</i>                    
 3     1.      1. Winter Is Coming <i>What do you expect?</i>        
 4     1.      1. Winter Is Coming <i>They're savages.</i>           
 5     1.      1. Winter Is Coming One lot steals a goat             
 6     1.      1. Winter Is Coming from another lot,                 
 7     1.      1. Winter Is Coming before you know it they're ripping
 8     1.      1. Winter Is Coming each other to pieces.             
 9     1.      1. Winter Is Coming do a thing like this.             
10     1.      1. Winter Is Coming not ever in my life.              
# ... with 63,253 more rows

got_words

# A tibble: 252,945 x 4
   season episode title            word  
    <dbl>   <dbl> <chr>            <chr> 
 1     1.      1. Winter Is Coming easy  
 2     1.      1. Winter Is Coming boy   
 3     1.      1. Winter Is Coming i     
 4     1.      1. Winter Is Coming gasps 
 5     1.      1. Winter Is Coming i     
 6     1.      1. Winter Is Coming i     
 7     1.      1. Winter Is Coming what  
 8     1.      1. Winter Is Coming do    
 9     1.      1. Winter Is Coming you   
10     1.      1. Winter Is Coming expect
# ... with 252,935 more rows
…
