Machine Learning
…
Warning: package 'bindrcpp' was built under R version 3.4.4

# Savew first 100 rows as heart_train and remaining as heart_test
heart_train <- heartdisease %>% 
                slice(1:100)

heart_test <- heartdisease %>% 
                slice(101:nrow(heartdisease))

heart_train

# A tibble: 100 x 14
     age   sex cp    trestbps  chol   fbs restecg    thalach exang oldpeak
   <dbl> <dbl> <fct>    <dbl> <dbl> <dbl> <fct>        <dbl> <dbl>   <dbl>
 1   44.    0. np        108.  141.    0. normal        175.    0.   0.600
 2   51.    0. np        140.  308.    0. hypertrop    142.    0.   1.50 
 3   52.    1. np        138.  223.    0. normal        169.    0.   0.   
 4   48.    1. aa        110.  229.    0. normal        168.    0.   1.00 
 5   59.    1. aa        140.  221.    0. normal        164.    1.   0.   
 6   58.    1. np        105.  240.    0. hypertrop    154.    1.   0.600
 7   41.    0. aa        126.  306.    0. normal        163.    0.   0.   
 8   39.    1. a         118.  219.    0. normal        140.    0.   1.20 
 9   77.    1. a         125.  304.    0. hypertrop    162.    1.   0.   
10   41.    0. aa        105.  198.    0. normal        168.    0.   0.   
# ... with 90 more rows, and 4 more variables: slope <fct>, ca <dbl>,
#   thal <fct>, diagnosis <dbl>

heart_test

# A tibble: 203 x 14
     age   sex cp    trestbps  chol   fbs restecg    thalach exang oldpeak
   <dbl> <dbl> <fct>    <dbl> <dbl> <dbl> <fct>        <dbl> <dbl>   <dbl>
 1   60.    1. np        140.  185.    0. hypertrop    155.    0.   3.00 
 2   48.    1. aa        130.  245.    0. hypertrop    180.    0.   0.200
 3   64.    0. a         130.  303.    0. normal        122.    0.   2.00 
 4   62.    1. a         120.  267.    0. normal         99.    1.   1.80 
 5   43.    0. a         132.  341.    1. hypertrop    136.    1.   3.00 
 6   55.    0. aa        135.  250.    0. hypertrop    161.    0.   1.40 
 7   51.    1. a         140.  298.    0. normal        122.    1.   4.20 
 8   62.    1. aa        120.  281.    0. hypertrop    103.    0.   1.40 
 9   67.    1. a         120.  229.    0. hypertrop    129.    1.   2.60 
10   71.    0. np        110.  265.    1. hypertrop    130.    0.   0.   
# ... with 193 more rows, and 4 more variables: slope <fct>, ca <dbl>,
#   thal <fct>, diagnosis <dbl>
…
