Machine Learning II
…
# Convert diagnosis to a factor
#   This is important for some machine learning models to do
#   classification analyses

heartdisease_train <- heartdisease_train %>%
  mutate(diagnosis = factor(diagnosis))      # Convert diagnosis to a factor

Warning: package 'bindrcpp' was built under R version 3.4.4

Follow tasks 2 - 5 to explore the data. Remember our goal is to predict diagnosis!

heartdisease_train

# A tibble: 100 x 14
     age   sex cp    trestbps  chol   fbs restecg    thalach exang oldpeak
   <int> <int> <chr>    <int> <int> <int> <chr>        <int> <int>   <dbl>
 1    54     0 np         160   201     0 normal         163     0   0.   
 2    54     0 np         135   304     1 normal         170     0   0.   
 3    34     0 aa         118   210     0 normal         192     0   0.700
 4    57     1 a          152   274     0 normal          88     1   1.20 
 5    60     0 a          150   258     0 hypertrop     157     0   2.60 
 6    56     1 a          125   249     1 hypertrop     144     1   1.20 
 7    63     1 a          130   254     0 hypertrop     147     0   1.40 
 8    64     1 np         125   309     0 normal         131     1   1.80 
 9    58     0 a          170   225     1 hypertrop     146     1   2.80 
10    63     1 ta         145   233     1 hypertrop     150     0   2.30 
# ... with 90 more rows, and 4 more variables: slope <chr>, ca <int>,
#   thal <chr>, diagnosis <fct>
…
