Data wrangling with dplyr
…
trial_act <- read_csv(file = "https://raw.githubusercontent.com/therbootcamp/BaselRBootcamp2017/master/tutorials/data/ACTG175.csv")

C. The trial_act data is comes from the speff2trial package where it was originally called ACTG175. Look at the help menu for the ACTG175 data by running ?ACTG175. (Note: If you become really interested in the data, you can also read an article discussing the trial here: http://www.nejm.org/doi/full/10.1056/nejm199610103351501#t=article)

# Look at documentation for ACTG175 data (contained in the speff2trial package)
?ACTG175

D. First things first, take a look at the first few rows of the data by printing the trial_act object. It should look like this:

# Print trial_act object
trial_act

# A tibble: 2,139 x 27
   pidnum   age    wtkg  hemo  homo drugs karnof oprior   z30 zprior
    <int> <int>   <dbl> <int> <int> <int>  <int>  <int> <int>  <int>
 1  10056    48 89.8128     0     0     0    100      0     0      1
 2  10059    61 49.4424     0     0     0     90      0     1      1
 3  10089    45 88.4520     0     1     1     90      0     1      1
 4  10093    47 85.2768     0     1     0    100      0     1      1
 5  10124    43 66.6792     0     1     0    100      0     1      1
 6  10140    46 88.9056     0     1     1    100      0     1      1
 7  10165    31 73.0296     0     1     0    100      0     1      1
 8  10190    41 66.2256     0     1     1    100      0     1      1
 9  10198    40 82.5552     0     1     0     90      0     1      1
10  10229    35 78.0192     0     1     0    100      0     1      1
# ... with 2,129 more rows, and 17 more variables: preanti <int>,
#   race <int>, gender <int>, str2 <int>, strat <int>, symptom <int>,
#   treat <int>, offtrt <int>, cd40 <int>, cd420 <int>, cd496 <int>,
#   r <int>, cd80 <int>, cd820 <int>, cens <int>, days <int>, arms <int>
…
