Data objects and functions
…
---

# Inspecting `data_frame`s

Data frames (or `tibbles`) can be inspecting in various ways.

- `print()` - shows the default print (good with `tibbles`, bad with everything else)
- `head()`,`tail()` - prints the first/last six rows
- `str()` - gives an overview of the variables
- `View()` - opens Excel-like window
<br><br>

```
## # A tibble: 1,000 x 17
##      id sex      age height weight headband college tattoos tchests parrots
## * <int> <chr>  <dbl>  <dbl>  <dbl> <chr>    <chr>     <dbl>   <dbl>   <dbl>
## 1     1 male     28.   173.   70.5 yes      JSSFP        9.      0.      0.
## 2     2 male     31.   209.  106.  yes      JSSFP        9.     11.      0.
## 3     3 male     26.   170.   77.1 yes      CCCC        10.     10.      1.
## 4     4 female   31.   144.   58.5 no       JSSFP        2.      0.      2.
## 5     5 female   41.   158.   58.4 yes      JSSFP        9.      6.      4.
## 6     6 male     26.   190.   85.4 yes      CCCC         7.     19.      0.
## 7     7 female   31.   158.   59.6 yes      JSSFP        9.      1.      7.
## 8     8 female   31.   173.   74.5 yes      JSSFP        5.     13.      7.
## # ... with 992 more rows, and 7 more variables: favorite.pirate <chr>,
## #   sword.type <chr>, eyepatch <dbl>, sword.time <dbl>, beard.length <dbl>,
## #   fav.pixar <chr>, grogg <dbl>
```
…
